Gremio,Baja.x1_21,Alta.x2_21,Alta.x3_21,Alta.x4_21,Baja.x6_21,Baja.x8_21,Alta.x9_21,Baja.x10_21,Alta.x11_21,Baja.x12_21,Alta.x16_21,Baja.x17_21
Depredador,0,1,0,0,0,0,0,0,0,0,0,0
Depredador,0,0,0,0,0,0,0,0,0,0,1,0
Depredador,0,0,0,0,1,0,0,0,0,0,0,0
Depredador,0,0,0,0,0,0,0,0,1,0,0,0
Depredador,0,0,0,0,0,0,0,0,0,0,1,0
Depredador,0,0,0,0,1,0,0,1,1,1,1,0
Depredador,1,0,0,0,0,0,0,0,0,1,1,1
Depredador,0,0,0,0,0,0,0,0,0,0,1,0
Depredador,0,0,0,0,0,1,0,0,0,0,0,0
Depredador,0,0,0,0,1,0,0,0,0,0,0,0
Depredador,1,1,1,1,1,1,1,0,1,1,1,1
Depredador,0,0,0,0,0,0,0,0,0,1,0,0
Depredador,0,0,0,0,0,0,1,0,0,1,1,1
Depredador,1,0,0,0,0,0,0,0,0,0,0,0
Depredador,0,0,0,0,0,1,0,1,1,1,0,1
